…
我们想原始数据框的列名，转换成多个变量，比如A,B,C成为物种(species)变量，（height, width, depth）成为parameter变量。

plant_record %>% 
  pivot_longer(
    cols = -day,
    names_to = c('species', 'parameter'),
    names_pattern = "(.*)_(.*)",
    values_to = 'values'
      )

## # A tibble: 45 × 4
##      day species parameter values
##    <int> <chr>   <chr>      <dbl>
##  1     1 A       height       1.1
##  2     1 A       width        2.1
##  3     1 A       depth        3.1
##  4     1 B       height       4.1
##  5     1 B       width        5.1
##  6     1 B       depth        6.1
##  7     1 C       height       7.1
##  8     1 C       width        8.1
##  9     1 C       depth        9.1
## 10     2 A       height       1.2
## # … with 35 more rows
…
