…
## mtcars_4.csv mtcars_6.csv mtcars_8.csv

vroom(files)

## Rows: 32 Columns: 12
## ── Column specification ────────────────────────────────────────────────────────
## Delimiter: "\t"
## chr  (1): model
## dbl (11): mpg, cyl, disp, hp, drat, wt, qsec, vs, am, gear, carb
## 
## ℹ Use `spec()` to retrieve the full column specification for this data.
## ℹ Specify the column types or set `show_col_types = FALSE` to quiet this message.

## # A tibble: 32 × 12
##    model         mpg   cyl  disp    hp  drat    wt  qsec    vs    am  gear  carb
##    <chr>       <dbl> <dbl> <dbl> <dbl> <dbl> <dbl> <dbl> <dbl> <dbl> <dbl> <dbl>
##  1 Datsun 710   22.8     4 108      93  3.85  2.32  18.6     1     1     4     1
##  2 Merc 240D    24.4     4 147.     62  3.69  3.19  20       1     0     4     2
##  3 Merc 230     22.8     4 141.     95  3.92  3.15  22.9     1     0     4     2
##  4 Fiat 128     32.4     4  78.7    66  4.08  2.2   19.5     1     1     4     1
##  5 Honda Civic  30.4     4  75.7    52  4.93  1.62  18.5     1     1     4     2
##  6 Toyota Cor…  33.9     4  71.1    65  4.22  1.84  19.9     1     1     4     1
##  7 Toyota Cor…  21.5     4 120.     97  3.7   2.46  20.0     1     0     3     1
##  8 Fiat X1-9    27.3     4  79      66  4.08  1.94  18.9     1     1     4     1
##  9 Porsche 91…  26       4 120.     91  4.43  2.14  16.7     0     1     5     2
## 10 Lotus Euro…  30.4     4  95.1   113  3.77  1.51  16.9     1     1     5     2
## # … with 22 more rows
…
vroom还可以使用dplyr的选择语法选择列：

vroom(files, col_select = c(model))

## Rows: 32 Columns: 1
## ── Column specification ────────────────────────────────────────────────────────
## Delimiter: "\t"
## chr (1): model
## 
## ℹ Use `spec()` to retrieve the full column specification for this data.
## ℹ Specify the column types or set `show_col_types = FALSE` to quiet this message.

## # A tibble: 32 × 1
##    model         
##    <chr>         
##  1 Datsun 710    
##  2 Merc 240D     
##  3 Merc 230      
##  4 Fiat 128      
##  5 Honda Civic   
##  6 Toyota Corolla
##  7 Toyota Corona 
##  8 Fiat X1-9     
##  9 Porsche 914-2 
## 10 Lotus Europa  
## # … with 22 more rows

#重命名选择列
vroom(files, col_select = c(x = model, everything()))

## Rows: 32 Columns: 12
## ── Column specification ────────────────────────────────────────────────────────
## Delimiter: "\t"
## chr  (1): model
## dbl (11): mpg, cyl, disp, hp, drat, wt, qsec, vs, am, gear, carb
## 
## ℹ Use `spec()` to retrieve the full column specification for this data.
## ℹ Specify the column types or set `show_col_types = FALSE` to quiet this message.

## # A tibble: 32 × 12
##    x             mpg   cyl  disp    hp  drat    wt  qsec    vs    am  gear  carb
##    <chr>       <dbl> <dbl> <dbl> <dbl> <dbl> <dbl> <dbl> <dbl> <dbl> <dbl> <dbl>
##  1 Datsun 710   22.8     4 108      93  3.85  2.32  18.6     1     1     4     1
##  2 Merc 240D    24.4     4 147.     62  3.69  3.19  20       1     0     4     2
##  3 Merc 230     22.8     4 141.     95  3.92  3.15  22.9     1     0     4     2
##  4 Fiat 128     32.4     4  78.7    66  4.08  2.2   19.5     1     1     4     1
##  5 Honda Civic  30.4     4  75.7    52  4.93  1.62  18.5     1     1     4     2
##  6 Toyota Cor…  33.9     4  71.1    65  4.22  1.84  19.9     1     1     4     1
##  7 Toyota Cor…  21.5     4 120.     97  3.7   2.46  20.0     1     0     3     1
##  8 Fiat X1-9    27.3     4  79      66  4.08  1.94  18.9     1     1     4     1
##  9 Porsche 91…  26       4 120.     91  4.43  2.14  16.7     0     1     5     2
## 10 Lotus Euro…  30.4     4  95.1   113  3.77  1.51  16.9     1     1     5     2
## # … with 22 more rows
…
还可以修改变量类型，这是防止vroom判断失误。

vroom(files, col_types = c(model = 'c'))

## # A tibble: 32 × 12
##    model         mpg   cyl  disp    hp  drat    wt  qsec    vs    am  gear  carb
##    <chr>       <dbl> <dbl> <dbl> <dbl> <dbl> <dbl> <dbl> <dbl> <dbl> <dbl> <dbl>
##  1 Datsun 710   22.8     4 108      93  3.85  2.32  18.6     1     1     4     1
##  2 Merc 240D    24.4     4 147.     62  3.69  3.19  20       1     0     4     2
##  3 Merc 230     22.8     4 141.     95  3.92  3.15  22.9     1     0     4     2
##  4 Fiat 128     32.4     4  78.7    66  4.08  2.2   19.5     1     1     4     1
##  5 Honda Civic  30.4     4  75.7    52  4.93  1.62  18.5     1     1     4     2
##  6 Toyota Cor…  33.9     4  71.1    65  4.22  1.84  19.9     1     1     4     1
##  7 Toyota Cor…  21.5     4 120.     97  3.7   2.46  20.0     1     0     3     1
##  8 Fiat X1-9    27.3     4  79      66  4.08  1.94  18.9     1     1     4     1
##  9 Porsche 91…  26       4 120.     91  4.43  2.14  16.7     0     1     5     2
## 10 Lotus Euro…  30.4     4  95.1   113  3.77  1.51  16.9     1     1     5     2
## # … with 22 more rows
…
