…
str_count()返回字符串匹配的数量：

x <- c("apple", "banana", "pear")
str_count(x, "a")

## [1] 1 3 1

tibble(
  word = words
) %>%
  mutate(
    vowels = str_count(word, "[aeiou]"),
    consonants = str_count(word, "[^aeiou]"))

## # A tibble: 980 × 3
##    word     vowels consonants
##    <chr>     <int>      <int>
##  1 a             1          0
##  2 able          2          2
##  3 about         3          2
##  4 absolute      4          4
##  5 accept        2          4
##  6 account       3          4
##  7 achieve       4          3
##  8 across        2          4
##  9 act           1          2
## 10 active        3          3
## # … with 970 more rows
…
